STA 101 Fall 2024 - Logistic regression
…
Next, we need something to model, so let us load in a data set. We will consider this data set from Hewlett-Packard on spam emails:

hp_spam <- read_csv("hp-spam.csv")

hp_spam <- hp_spam |>
  mutate(type = as.factor(type))

Note

Be prepared to adjust the file path to match how you have organized your files and folders.

hp_spam |>
  select(type, george, capitalTotal, you, charDollar)

# A tibble: 4,601 × 5
   type  george capitalTotal   you charDollar
   <fct>  <dbl>        <dbl> <dbl>      <dbl>
 1 1          0          278  1.93      0    
 2 1          0         1028  3.47      0.18 
 3 1          0         2259  1.36      0.184
 4 1          0          191  3.18      0    
 5 1          0          191  3.18      0    
 6 1          0           54  0         0    
 7 1          0          112  3.85      0.054
 8 1          0           49  0         0    
 9 1          0         1257  1.23      0.203
10 1          0          749  1.67      0.081
# ℹ 4,591 more rows
…
