STA 101 Fall 2024 - Hypothesis testing with randomization
…
So say we are interviewing a medical consultant, and we must decide whether or not to hire her. Some of her clients will experience complications, and some will not. Intrinsic to her is her personal “complication rate” \(p\) – the probability that a given client of hers experiences complications. If her complication rate is 10%, we are wasting your money hiring her because she is no better than if we went in blind. If her complication rate is greater than 10%, that’s even worse. If her complication rate is less than 10%, then great! Hire her.

So we are interested in these hypotheses:

\[
\begin{align*}
\text{H}_0&:p=0.10\\
\text{H}_A&:p\neq 0.10.
\end{align*}
\] In order to evaluate these competing claims about the effectiveness of the consultant, we have historical data on her track record:

organ_donor <- read_csv("organ-donor.csv")
organ_donor

# A tibble: 62 × 1
   outcome        
   <chr>          
 1 complication   
 2 complication   
 3 complication   
 4 no complication
 5 no complication
 6 no complication
 7 no complication
 8 no complication
 9 no complication
10 no complication
# ℹ 52 more rows
…
The following code simulates the null distribution of the sample proportion:

set.seed(25)

null_dist_donor <- organ_donor |>
  specify(response = outcome, success = "complication") |>
  hypothesize(null = "point", p = 0.10) |> 
  generate(reps = 15000, type = "draw") |> 
  calculate(stat = "prop")
null_dist_donor

Response: outcome (factor)
Null Hypothesis: point
# A tibble: 15,000 × 2
   replicate   stat
       <int>  <dbl>
 1         1 0.0645
 2         2 0.0484
 3         3 0.113 
 4         4 0.0806
 5         5 0.145 
 6         6 0.145 
 7         7 0.113 
 8         8 0.0806
 9         9 0.113 
10        10 0.145 
# ℹ 14,990 more rows
…
