STA 101 Fall 2024 - More hypothesis testing
…
This primer leads you down the path of least resistance to calculating the \(p\)-value.

Load packages

library(tidyverse) 
library(tidymodels) 
library(openintro)

Dataset: is yawning contagious?

An experiment conducted by the MythBusters tested if a person can be subconsciously influenced into yawning if another person near them yawns. In this study 50 people were randomly assigned to two groups: 34 to a group where a person near them yawned (treatment) and 16 to a control group where they didn’t see someone yawn (control). This is the yawn dataset, pre-loaded in the openintro package:

yawn

# A tibble: 50 × 2
   result group
   <fct>  <fct>
 1 yawn   trmt 
 2 yawn   trmt 
 3 yawn   trmt 
 4 yawn   trmt 
 5 yawn   trmt 
 6 yawn   trmt 
 7 yawn   trmt 
 8 yawn   trmt 
 9 yawn   trmt 
10 yawn   trmt 
# ℹ 40 more rows
…
The following code simulates the null distribution of the sample difference in proportions:

set.seed(25)

null_dist_yawner <- yawn |>
  specify(response = result, explanatory = group, success = "yawn") |>
  hypothesize(null = "independence") |>
  generate(reps = 1000, type = "permute") |>
  calculate(stat = "diff in props", order = c("trmt", "ctrl"))
null_dist_yawner

Response: result (factor)
Explanatory: group (factor)
Null Hypothesis: independence
# A tibble: 1,000 × 2
   replicate    stat
       <int>   <dbl>
 1         1  0.0441
 2         2 -0.140 
 3         3 -0.0478
 4         4 -0.232 
 5         5  0.0441
 6         6 -0.232 
 7         7 -0.0478
 8         8 -0.0478
 9         9  0.136 
10        10 -0.0478
# ℹ 990 more rows
…
