STA 101 Fall 2024 - Confidence intervals with the bootstrap
…
Setup

Load our packages as usual:

library(tidyverse) 
library(tidymodels) 

Next, consider this lil’ dataset:

abb <- read_csv("asheville.csv")

abb

# A tibble: 50 × 1
     ppg
   <dbl>
 1  48  
 2  40  
 3  99  
 4  13  
 5  55  
 6  75  
 7  74  
 8 169  
 9  56.2
10  74.5
# ℹ 40 more rows
…
The sampling distribution of the mean refers to the random variation we would observe in our mean estimate if we recomputed it based on many different hypothetical samples from the population (June 2020 Airbnb listings in Asheville, in this case). Unfortunately, we do not have many different samples from this population. We only have one sample. But if that sample is a decent approximation to the population (debateable, in this case), we can randomly generate different hypothetical samples from our sample (resamples), calculate a different mean for each, and look at the variation in those estimates.

This is dirty work, but thankfully the computer handles it with aplomb:

set.seed(8675309) 

boot_dist_abb <- abb |>
  specify(response = ppg) |>
  generate(reps = 5000, type = "bootstrap") |>
  calculate(stat = "mean")

boot_dist_abb

Response: ppg (numeric)
# A tibble: 5,000 × 2
   replicate  stat
       <int> <dbl>
 1         1  70.8
 2         2  66.2
 3         3  72.8
 4         4  73.1
 5         5  76.4
 6         6  80.1
 7         7  80.4
 8         8  69.1
 9         9  91.7
10        10  74.1
# ℹ 4,990 more rows
…
